%YAML 1.1
%TAG !u! tag:unity3d.com,2011:
--- !u!221 &22100000
AnimatorOverrideController:
  m_ObjectHideFlags: 0
  m_CorrespondingSourceObject: {fileID: 0}
  m_PrefabInstance: {fileID: 0}
  m_PrefabAsset: {fileID: 0}
  m_Name: elpepep
  m_Controller: {fileID: 9100000, guid: f51e557b30243f3419a4410e1e865496, type: 2}
  m_Clips:
  - m_OriginalClip: {fileID: 7400000, guid: b4425a02537f7504683eb692e1a47a34, type: 2}
    m_OverrideClip: {fileID: 7400000, guid: b4425a02537f7504683eb692e1a47a34, type: 2}
  - m_OriginalClip: {fileID: 7400000, guid: 27199286c6bf416409cff2d52bd3eb99, type: 2}
    m_OverrideClip: {fileID: 7400000, guid: 27199286c6bf416409cff2d52bd3eb99, type: 2}
