%YAML 1.1
%TAG !u! tag:unity3d.com,2011:
--- !u!95 &809790870
Animator:
  serializedVersion: 3
  m_ObjectHideFlags: 0
  m_CorrespondingSourceObject: {fileID: 0}
  m_PrefabInstance: {fileID: 0}
  m_PrefabAsset: {fileID: 0}
  m_GameObject: {fileID: 7194959592233053686}
  m_Enabled: 1
  m_Avatar: {fileID: 0}
  m_Controller: {fileID: 9100000, guid: f51e557b30243f3419a4410e1e865496, type: 2}
  m_CullingMode: 0
  m_UpdateMode: 0
  m_ApplyRootMotion: 0
  m_LinearVelocityBlending: 0
  m_WarningMessage: 
  m_HasTransformHierarchy: 1
  m_AllowConstantClipSamplingOptimization: 1
  m_KeepAnimatorControllerStateOnDisable: 0
--- !u!114 &809790871
MonoBehaviour:
  m_ObjectHideFlags: 0
  m_CorrespondingSourceObject: {fileID: 0}
  m_PrefabInstance: {fileID: 0}
  m_PrefabAsset: {fileID: 0}
  m_GameObject: {fileID: 7194959592233053686}
  m_Enabled: 1
  m_EditorHideFlags: 0
  m_Script: {fileID: 11500000, guid: 6aef398f648ce584ca7d46919c4a9b6b, type: 3}
  m_Name: 
  m_EditorClassIdentifier: 
  thisAnimator: {fileID: 809790870}
--- !u!1001 &5877125790388348241
PrefabInstance:
  m_ObjectHideFlags: 0
  serializedVersion: 2
  m_Modification:
    m_TransformParent: {fileID: 0}
    m_Modifications:
    - target: {fileID: -8557617173698635843, guid: 10f8814950412e2489cf49bab540a404, type: 3}
      propertyPath: m_Bounds.m_Center.x
      value: 0.1615324
      objectReference: {fileID: 0}
    - target: {fileID: -8557617173698635843, guid: 10f8814950412e2489cf49bab540a404, type: 3}
      propertyPath: m_Bounds.m_Center.y
      value: 0.14916974
      objectReference: {fileID: 0}
    - target: {fileID: -8557617173698635843, guid: 10f8814950412e2489cf49bab540a404, type: 3}
      propertyPath: m_Bounds.m_Extent.x
      value: 1.0538939
      objectReference: {fileID: 0}
    - target: {fileID: -8557617173698635843, guid: 10f8814950412e2489cf49bab540a404, type: 3}
      propertyPath: m_Bounds.m_Extent.y
      value: 0.75878215
      objectReference: {fileID: 0}
    - target: {fileID: -8226230287151545291, guid: 10f8814950412e2489cf49bab540a404, type: 3}
      propertyPath: m_LocalPosition.x
      value: 1.8110858
      objectReference: {fileID: 0}
    - target: {fileID: -8226230287151545291, guid: 10f8814950412e2489cf49bab540a404, type: 3}
      propertyPath: m_LocalPosition.y
      value: 0.62760466
      objectReference: {fileID: 0}
    - target: {fileID: -8226230287151545291, guid: 10f8814950412e2489cf49bab540a404, type: 3}
      propertyPath: m_LocalRotation.w
      value: 0.9800942
      objectReference: {fileID: 0}
    - target: {fileID: -8226230287151545291, guid: 10f8814950412e2489cf49bab540a404, type: 3}
      propertyPath: m_LocalRotation.x
      value: -0
      objectReference: {fileID: 0}
    - target: {fileID: -8226230287151545291, guid: 10f8814950412e2489cf49bab540a404, type: 3}
      propertyPath: m_LocalRotation.y
      value: -0
      objectReference: {fileID: 0}
    - target: {fileID: -8226230287151545291, guid: 10f8814950412e2489cf49bab540a404, type: 3}
      propertyPath: m_LocalRotation.z
      value: 0.19853306
      objectReference: {fileID: 0}
    - target: {fileID: -8226230287151545291, guid: 10f8814950412e2489cf49bab540a404, type: 3}
      propertyPath: m_LocalEulerAnglesHint.z
      value: 22.902
      objectReference: {fileID: 0}
    - target: {fileID: -7971786017979143854, guid: 10f8814950412e2489cf49bab540a404, type: 3}
      propertyPath: m_Sprite
      value: 
      objectReference: {fileID: -4165525520767883516, guid: 10f8814950412e2489cf49bab540a404, type: 3}
    - target: {fileID: -7971786017979143854, guid: 10f8814950412e2489cf49bab540a404, type: 3}
      propertyPath: m_SortingOrder
      value: -1
      objectReference: {fileID: 0}
    - target: {fileID: -5758969278528184528, guid: 10f8814950412e2489cf49bab540a404, type: 3}
      propertyPath: m_Sprite
      value: 
      objectReference: {fileID: 8130814618404390843, guid: 10f8814950412e2489cf49bab540a404, type: 3}
    - target: {fileID: -5758969278528184528, guid: 10f8814950412e2489cf49bab540a404, type: 3}
      propertyPath: m_SortingOrder
      value: -1
      objectReference: {fileID: 0}
    - target: {fileID: -5452351608787127414, guid: 10f8814950412e2489cf49bab540a404, type: 3}
      propertyPath: m_RootOrder
      value: 0
      objectReference: {fileID: 0}
    - target: {fileID: -5452351608787127414, guid: 10f8814950412e2489cf49bab540a404, type: 3}
      propertyPath: m_LocalPosition.x
      value: 2.3534393
      objectReference: {fileID: 0}
    - target: {fileID: -5452351608787127414, guid: 10f8814950412e2489cf49bab540a404, type: 3}
      propertyPath: m_LocalPosition.y
      value: -0.4
      objectReference: {fileID: 0}
    - target: {fileID: -5452351608787127414, guid: 10f8814950412e2489cf49bab540a404, type: 3}
      propertyPath: m_LocalPosition.z
      value: 22.96
      objectReference: {fileID: 0}
    - target: {fileID: -5452351608787127414, guid: 10f8814950412e2489cf49bab540a404, type: 3}
      propertyPath: m_LocalRotation.w
      value: 1
      objectReference: {fileID: 0}
    - target: {fileID: -5452351608787127414, guid: 10f8814950412e2489cf49bab540a404, type: 3}
      propertyPath: m_LocalRotation.x
      value: 0
      objectReference: {fileID: 0}
    - target: {fileID: -5452351608787127414, guid: 10f8814950412e2489cf49bab540a404, type: 3}
      propertyPath: m_LocalRotation.y
      value: 0
      objectReference: {fileID: 0}
    - target: {fileID: -5452351608787127414, guid: 10f8814950412e2489cf49bab540a404, type: 3}
      propertyPath: m_LocalRotation.z
      value: 0
      objectReference: {fileID: 0}
    - target: {fileID: -5452351608787127414, guid: 10f8814950412e2489cf49bab540a404, type: 3}
      propertyPath: m_LocalEulerAnglesHint.x
      value: 0
      objectReference: {fileID: 0}
    - target: {fileID: -5452351608787127414, guid: 10f8814950412e2489cf49bab540a404, type: 3}
      propertyPath: m_LocalEulerAnglesHint.y
      value: 0
      objectReference: {fileID: 0}
    - target: {fileID: -5452351608787127414, guid: 10f8814950412e2489cf49bab540a404, type: 3}
      propertyPath: m_LocalEulerAnglesHint.z
      value: 0
      objectReference: {fileID: 0}
    - target: {fileID: -4579871015068412999, guid: 10f8814950412e2489cf49bab540a404, type: 3}
      propertyPath: m_Sprite
      value: 
      objectReference: {fileID: 3742411789471595520, guid: 10f8814950412e2489cf49bab540a404, type: 3}
    - target: {fileID: -4579871015068412999, guid: 10f8814950412e2489cf49bab540a404, type: 3}
      propertyPath: m_SortingOrder
      value: -1
      objectReference: {fileID: 0}
    - target: {fileID: -3417856602378249856, guid: 10f8814950412e2489cf49bab540a404, type: 3}
      propertyPath: m_LocalRotation.w
      value: 0.73588216
      objectReference: {fileID: 0}
    - target: {fileID: -3417856602378249856, guid: 10f8814950412e2489cf49bab540a404, type: 3}
      propertyPath: m_LocalRotation.x
      value: 0
      objectReference: {fileID: 0}
    - target: {fileID: -3417856602378249856, guid: 10f8814950412e2489cf49bab540a404, type: 3}
      propertyPath: m_LocalRotation.y
      value: 0
      objectReference: {fileID: 0}
    - target: {fileID: -3417856602378249856, guid: 10f8814950412e2489cf49bab540a404, type: 3}
      propertyPath: m_LocalRotation.z
      value: 0.67710966
      objectReference: {fileID: 0}
    - target: {fileID: -3417856602378249856, guid: 10f8814950412e2489cf49bab540a404, type: 3}
      propertyPath: m_LocalEulerAnglesHint.z
      value: 0
      objectReference: {fileID: 0}
    - target: {fileID: -3333434819917442469, guid: 10f8814950412e2489cf49bab540a404, type: 3}
      propertyPath: m_Bounds.m_Center.x
      value: -0.0022050142
      objectReference: {fileID: 0}
    - target: {fileID: -3333434819917442469, guid: 10f8814950412e2489cf49bab540a404, type: 3}
      propertyPath: m_Bounds.m_Center.y
      value: -0.000000059604645
      objectReference: {fileID: 0}
    - target: {fileID: -3333434819917442469, guid: 10f8814950412e2489cf49bab540a404, type: 3}
      propertyPath: m_Bounds.m_Extent.x
      value: 0.77764493
      objectReference: {fileID: 0}
    - target: {fileID: -2231406745288445527, guid: 10f8814950412e2489cf49bab540a404, type: 3}
      propertyPath: m_Bounds.m_Center.x
      value: 0.112375855
      objectReference: {fileID: 0}
    - target: {fileID: -2231406745288445527, guid: 10f8814950412e2489cf49bab540a404, type: 3}
      propertyPath: m_Bounds.m_Center.y
      value: -0.019898057
      objectReference: {fileID: 0}
    - target: {fileID: -2231406745288445527, guid: 10f8814950412e2489cf49bab540a404, type: 3}
      propertyPath: m_Bounds.m_Extent.x
      value: 1.9181337
      objectReference: {fileID: 0}
    - target: {fileID: -2231406745288445527, guid: 10f8814950412e2489cf49bab540a404, type: 3}
      propertyPath: m_Bounds.m_Extent.y
      value: 1.5557735
      objectReference: {fileID: 0}
    - target: {fileID: -2023494770586249518, guid: 10f8814950412e2489cf49bab540a404, type: 3}
      propertyPath: m_Bounds.m_Center.x
      value: -0.003559947
      objectReference: {fileID: 0}
    - target: {fileID: -2023494770586249518, guid: 10f8814950412e2489cf49bab540a404, type: 3}
      propertyPath: m_Bounds.m_Center.y
      value: -0.0009899139
      objectReference: {fileID: 0}
    - target: {fileID: 2400564896315193816, guid: 10f8814950412e2489cf49bab540a404, type: 3}
      propertyPath: m_Sprite
      value: 
      objectReference: {fileID: -3004360512750240130, guid: 10f8814950412e2489cf49bab540a404, type: 3}
    - target: {fileID: 2400564896315193816, guid: 10f8814950412e2489cf49bab540a404, type: 3}
      propertyPath: m_SortingOrder
      value: 2
      objectReference: {fileID: 0}
    - target: {fileID: 3033212844497814380, guid: 10f8814950412e2489cf49bab540a404, type: 3}
      propertyPath: m_LocalPosition.x
      value: -0.22354676
      objectReference: {fileID: 0}
    - target: {fileID: 3033212844497814380, guid: 10f8814950412e2489cf49bab540a404, type: 3}
      propertyPath: m_LocalPosition.y
      value: 0.42916206
      objectReference: {fileID: 0}
    - target: {fileID: 3033212844497814380, guid: 10f8814950412e2489cf49bab540a404, type: 3}
      propertyPath: m_LocalRotation.w
      value: 0.6568111
      objectReference: {fileID: 0}
    - target: {fileID: 3033212844497814380, guid: 10f8814950412e2489cf49bab540a404, type: 3}
      propertyPath: m_LocalRotation.x
      value: 0
      objectReference: {fileID: 0}
    - target: {fileID: 3033212844497814380, guid: 10f8814950412e2489cf49bab540a404, type: 3}
      propertyPath: m_LocalRotation.y
      value: 0
      objectReference: {fileID: 0}
    - target: {fileID: 3033212844497814380, guid: 10f8814950412e2489cf49bab540a404, type: 3}
      propertyPath: m_LocalRotation.z
      value: 0.75405514
      objectReference: {fileID: 0}
    - target: {fileID: 3033212844497814380, guid: 10f8814950412e2489cf49bab540a404, type: 3}
      propertyPath: m_LocalEulerAnglesHint.z
      value: 0
      objectReference: {fileID: 0}
    - target: {fileID: 3289567001471118522, guid: 10f8814950412e2489cf49bab540a404, type: 3}
      propertyPath: m_Bounds.m_Center.x
      value: 0.20920193
      objectReference: {fileID: 0}
    - target: {fileID: 3289567001471118522, guid: 10f8814950412e2489cf49bab540a404, type: 3}
      propertyPath: m_Bounds.m_Center.y
      value: -0.028704882
      objectReference: {fileID: 0}
    - target: {fileID: 3289567001471118522, guid: 10f8814950412e2489cf49bab540a404, type: 3}
      propertyPath: m_Bounds.m_Extent.x
      value: 1.3340921
      objectReference: {fileID: 0}
    - target: {fileID: 3289567001471118522, guid: 10f8814950412e2489cf49bab540a404, type: 3}
      propertyPath: m_Bounds.m_Extent.y
      value: 2.0437074
      objectReference: {fileID: 0}
    - target: {fileID: 3627121066133244071, guid: 10f8814950412e2489cf49bab540a404, type: 3}
      propertyPath: m_Name
      value: enemigo1
      objectReference: {fileID: 0}
    - target: {fileID: 3870737400685637012, guid: 10f8814950412e2489cf49bab540a404, type: 3}
      propertyPath: m_LocalPosition.x
      value: 1.7931545
      objectReference: {fileID: 0}
    - target: {fileID: 3870737400685637012, guid: 10f8814950412e2489cf49bab540a404, type: 3}
      propertyPath: m_LocalPosition.y
      value: -0.8906009
      objectReference: {fileID: 0}
    - target: {fileID: 3870737400685637012, guid: 10f8814950412e2489cf49bab540a404, type: 3}
      propertyPath: m_LocalRotation.w
      value: 0.5616132
      objectReference: {fileID: 0}
    - target: {fileID: 3870737400685637012, guid: 10f8814950412e2489cf49bab540a404, type: 3}
      propertyPath: m_LocalRotation.x
      value: -0
      objectReference: {fileID: 0}
    - target: {fileID: 3870737400685637012, guid: 10f8814950412e2489cf49bab540a404, type: 3}
      propertyPath: m_LocalRotation.y
      value: -0
      objectReference: {fileID: 0}
    - target: {fileID: 3870737400685637012, guid: 10f8814950412e2489cf49bab540a404, type: 3}
      propertyPath: m_LocalRotation.z
      value: -0.82739997
      objectReference: {fileID: 0}
    - target: {fileID: 3870737400685637012, guid: 10f8814950412e2489cf49bab540a404, type: 3}
      propertyPath: m_LocalEulerAnglesHint.z
      value: -111.665
      objectReference: {fileID: 0}
    - target: {fileID: 3904065276228804723, guid: 10f8814950412e2489cf49bab540a404, type: 3}
      propertyPath: m_Bounds.m_Center.x
      value: 0.000000059604645
      objectReference: {fileID: 0}
    - target: {fileID: 3904065276228804723, guid: 10f8814950412e2489cf49bab540a404, type: 3}
      propertyPath: m_Bounds.m_Center.y
      value: -0.0003400147
      objectReference: {fileID: 0}
    - target: {fileID: 3904065276228804723, guid: 10f8814950412e2489cf49bab540a404, type: 3}
      propertyPath: m_Bounds.m_Extent.x
      value: 0.4750002
      objectReference: {fileID: 0}
    - target: {fileID: 4779281134227487347, guid: 10f8814950412e2489cf49bab540a404, type: 3}
      propertyPath: m_LocalPosition.x
      value: 1.9067225
      objectReference: {fileID: 0}
    - target: {fileID: 4779281134227487347, guid: 10f8814950412e2489cf49bab540a404, type: 3}
      propertyPath: m_LocalPosition.y
      value: -0.00000010819529
      objectReference: {fileID: 0}
    - target: {fileID: 4779281134227487347, guid: 10f8814950412e2489cf49bab540a404, type: 3}
      propertyPath: m_LocalRotation.w
      value: 0.98054624
      objectReference: {fileID: 0}
    - target: {fileID: 4779281134227487347, guid: 10f8814950412e2489cf49bab540a404, type: 3}
      propertyPath: m_LocalRotation.x
      value: -0
      objectReference: {fileID: 0}
    - target: {fileID: 4779281134227487347, guid: 10f8814950412e2489cf49bab540a404, type: 3}
      propertyPath: m_LocalRotation.y
      value: -0
      objectReference: {fileID: 0}
    - target: {fileID: 4779281134227487347, guid: 10f8814950412e2489cf49bab540a404, type: 3}
      propertyPath: m_LocalRotation.z
      value: -0.19628838
      objectReference: {fileID: 0}
    - target: {fileID: 4779281134227487347, guid: 10f8814950412e2489cf49bab540a404, type: 3}
      propertyPath: m_LocalEulerAnglesHint.z
      value: -22.64
      objectReference: {fileID: 0}
    - target: {fileID: 7050949098862770403, guid: 10f8814950412e2489cf49bab540a404, type: 3}
      propertyPath: m_Sprite
      value: 
      objectReference: {fileID: 3752090121971327461, guid: 10f8814950412e2489cf49bab540a404, type: 3}
    - target: {fileID: 7050949098862770403, guid: 10f8814950412e2489cf49bab540a404, type: 3}
      propertyPath: m_SortingOrder
      value: 1
      objectReference: {fileID: 0}
    - target: {fileID: 7891573536685140998, guid: 10f8814950412e2489cf49bab540a404, type: 3}
      propertyPath: m_IsActive
      value: 1
      objectReference: {fileID: 0}
    - target: {fileID: 8575183539016384577, guid: 10f8814950412e2489cf49bab540a404, type: 3}
      propertyPath: m_LocalPosition.x
      value: -0.07053134
      objectReference: {fileID: 0}
    - target: {fileID: 8575183539016384577, guid: 10f8814950412e2489cf49bab540a404, type: 3}
      propertyPath: m_LocalPosition.y
      value: -0.7136756
      objectReference: {fileID: 0}
    - target: {fileID: 8575183539016384577, guid: 10f8814950412e2489cf49bab540a404, type: 3}
      propertyPath: m_LocalRotation.w
      value: -0.019843688
      objectReference: {fileID: 0}
    - target: {fileID: 8575183539016384577, guid: 10f8814950412e2489cf49bab540a404, type: 3}
      propertyPath: m_LocalRotation.x
      value: 0
      objectReference: {fileID: 0}
    - target: {fileID: 8575183539016384577, guid: 10f8814950412e2489cf49bab540a404, type: 3}
      propertyPath: m_LocalRotation.y
      value: 0
      objectReference: {fileID: 0}
    - target: {fileID: 8575183539016384577, guid: 10f8814950412e2489cf49bab540a404, type: 3}
      propertyPath: m_LocalRotation.z
      value: 0.9998031
      objectReference: {fileID: 0}
    - target: {fileID: 8575183539016384577, guid: 10f8814950412e2489cf49bab540a404, type: 3}
      propertyPath: m_LocalEulerAnglesHint.z
      value: 0
      objectReference: {fileID: 0}
    - target: {fileID: 8669346986067560210, guid: 10f8814950412e2489cf49bab540a404, type: 3}
      propertyPath: m_Sprite
      value: 
      objectReference: {fileID: 7194618605983055551, guid: 10f8814950412e2489cf49bab540a404, type: 3}
    - target: {fileID: 8669346986067560210, guid: 10f8814950412e2489cf49bab540a404, type: 3}
      propertyPath: m_SortingOrder
      value: -1
      objectReference: {fileID: 0}
    m_RemovedComponents: []
  m_SourcePrefab: {fileID: -4195615775101225691, guid: 10f8814950412e2489cf49bab540a404, type: 3}
--- !u!1 &7194959592233053686 stripped
GameObject:
  m_CorrespondingSourceObject: {fileID: 3627121066133244071, guid: 10f8814950412e2489cf49bab540a404, type: 3}
  m_PrefabInstance: {fileID: 5877125790388348241}
  m_PrefabAsset: {fileID: 0}
