%YAML 1.1
%TAG !u! tag:unity3d.com,2011:
--- !u!114 &2609305204726217221
MonoBehaviour:
  m_ObjectHideFlags: 0
  m_CorrespondingSourceObject: {fileID: 0}
  m_PrefabInstance: {fileID: 0}
  m_PrefabAsset: {fileID: 0}
  m_GameObject: {fileID: 567604557184946206}
  m_Enabled: 1
  m_EditorHideFlags: 0
  m_Script: {fileID: 11500000, guid: 0358035eee1e941478fc41a8d9888c27, type: 3}
  m_Name: 
  m_EditorClassIdentifier: 
  Anim: {fileID: 6701283547465405459}
  Character: {fileID: 567604557184946206}
  Llunku: {fileID: 7798828929310447241}
  vida: 40
  PuntoA:
  - {fileID: 0}
  - {fileID: 0}
  - {fileID: 0}
  - {fileID: 0}
  PuntoB:
  - {fileID: 0}
  - {fileID: 0}
  - {fileID: 0}
  - {fileID: 0}
  - {fileID: 0}
  PuntoC:
  - {fileID: 0}
  - {fileID: 0}
  - {fileID: 0}
  - {fileID: 0}
  PuntoD:
  - {fileID: 0}
  - {fileID: 0}
  Actual: {fileID: 0}
  index: 0
  Polecia: {fileID: 0}
--- !u!1001 &2744927928662668120
PrefabInstance:
  m_ObjectHideFlags: 0
  serializedVersion: 2
  m_Modification:
    m_TransformParent: {fileID: 0}
    m_Modifications:
    - target: {fileID: 2048049284647363301, guid: d2548b087edb2114e922f2bdd6654d70, type: 3}
      propertyPath: Puntos
      value: 10
      objectReference: {fileID: 0}
    - target: {fileID: 2048049284647363301, guid: d2548b087edb2114e922f2bdd6654d70, type: 3}
      propertyPath: PuntosOTP
      value: 
      objectReference: {fileID: 0}
    - target: {fileID: 2447557130351960902, guid: d2548b087edb2114e922f2bdd6654d70, type: 3}
      propertyPath: m_Name
      value: enemigo3 (1) Variant (2)
      objectReference: {fileID: 0}
    - target: {fileID: 2878992320351017067, guid: d2548b087edb2114e922f2bdd6654d70, type: 3}
      propertyPath: m_RootOrder
      value: 0
      objectReference: {fileID: 0}
    - target: {fileID: 2878992320351017067, guid: d2548b087edb2114e922f2bdd6654d70, type: 3}
      propertyPath: m_LocalPosition.x
      value: 4.94
      objectReference: {fileID: 0}
    - target: {fileID: 2878992320351017067, guid: d2548b087edb2114e922f2bdd6654d70, type: 3}
      propertyPath: m_LocalPosition.y
      value: 0.42024255
      objectReference: {fileID: 0}
    - target: {fileID: 2878992320351017067, guid: d2548b087edb2114e922f2bdd6654d70, type: 3}
      propertyPath: m_LocalPosition.z
      value: -32.107468
      objectReference: {fileID: 0}
    - target: {fileID: 2878992320351017067, guid: d2548b087edb2114e922f2bdd6654d70, type: 3}
      propertyPath: m_LocalRotation.w
      value: 1
      objectReference: {fileID: 0}
    - target: {fileID: 2878992320351017067, guid: d2548b087edb2114e922f2bdd6654d70, type: 3}
      propertyPath: m_LocalRotation.x
      value: 0
      objectReference: {fileID: 0}
    - target: {fileID: 2878992320351017067, guid: d2548b087edb2114e922f2bdd6654d70, type: 3}
      propertyPath: m_LocalRotation.y
      value: 0
      objectReference: {fileID: 0}
    - target: {fileID: 2878992320351017067, guid: d2548b087edb2114e922f2bdd6654d70, type: 3}
      propertyPath: m_LocalRotation.z
      value: 0
      objectReference: {fileID: 0}
    - target: {fileID: 2878992320351017067, guid: d2548b087edb2114e922f2bdd6654d70, type: 3}
      propertyPath: m_LocalEulerAnglesHint.x
      value: 0
      objectReference: {fileID: 0}
    - target: {fileID: 2878992320351017067, guid: d2548b087edb2114e922f2bdd6654d70, type: 3}
      propertyPath: m_LocalEulerAnglesHint.y
      value: 0
      objectReference: {fileID: 0}
    - target: {fileID: 2878992320351017067, guid: d2548b087edb2114e922f2bdd6654d70, type: 3}
      propertyPath: m_LocalEulerAnglesHint.z
      value: 0
      objectReference: {fileID: 0}
    - target: {fileID: 3759234887665565248, guid: d2548b087edb2114e922f2bdd6654d70, type: 3}
      propertyPath: Puntos
      value: 5
      objectReference: {fileID: 0}
    - target: {fileID: 3759234887665565248, guid: d2548b087edb2114e922f2bdd6654d70, type: 3}
      propertyPath: PuntosOTP
      value: 
      objectReference: {fileID: 0}
    - target: {fileID: 4248269639935978442, guid: d2548b087edb2114e922f2bdd6654d70, type: 3}
      propertyPath: Puntos
      value: 15
      objectReference: {fileID: 0}
    - target: {fileID: 4248269639935978442, guid: d2548b087edb2114e922f2bdd6654d70, type: 3}
      propertyPath: PuntosOTP
      value: 
      objectReference: {fileID: 0}
    - target: {fileID: 4296701926785674537, guid: d2548b087edb2114e922f2bdd6654d70, type: 3}
      propertyPath: m_BoneTransforms.Array.size
      value: 1
      objectReference: {fileID: 0}
    - target: {fileID: 6308608623182488284, guid: d2548b087edb2114e922f2bdd6654d70, type: 3}
      propertyPath: Puntos
      value: 1
      objectReference: {fileID: 0}
    - target: {fileID: 6308608623182488284, guid: d2548b087edb2114e922f2bdd6654d70, type: 3}
      propertyPath: PuntosOTP
      value: 
      objectReference: {fileID: 0}
    - target: {fileID: 6579835015296500580, guid: d2548b087edb2114e922f2bdd6654d70, type: 3}
      propertyPath: Puntos
      value: 1
      objectReference: {fileID: 0}
    - target: {fileID: 6579835015296500580, guid: d2548b087edb2114e922f2bdd6654d70, type: 3}
      propertyPath: PuntosOTP
      value: 
      objectReference: {fileID: 0}
    - target: {fileID: 6714514378321579665, guid: d2548b087edb2114e922f2bdd6654d70, type: 3}
      propertyPath: m_Size.x
      value: 4.12
      objectReference: {fileID: 0}
    - target: {fileID: 6714514378321579665, guid: d2548b087edb2114e922f2bdd6654d70, type: 3}
      propertyPath: m_Size.y
      value: 3.22
      objectReference: {fileID: 0}
    - target: {fileID: 6714514378321579665, guid: d2548b087edb2114e922f2bdd6654d70, type: 3}
      propertyPath: m_Sprite
      value: 
      objectReference: {fileID: 2419735149135245851, guid: 8f585faeb29cdce48942297be8a2ba1e, type: 3}
    - target: {fileID: 7355134813450482842, guid: d2548b087edb2114e922f2bdd6654d70, type: 3}
      propertyPath: Puntos
      value: 5
      objectReference: {fileID: 0}
    - target: {fileID: 7355134813450482842, guid: d2548b087edb2114e922f2bdd6654d70, type: 3}
      propertyPath: PuntosOTP
      value: 
      objectReference: {fileID: 0}
    m_RemovedComponents:
    - {fileID: 8986285364287560457, guid: d2548b087edb2114e922f2bdd6654d70, type: 3}
  m_SourcePrefab: {fileID: 100100000, guid: d2548b087edb2114e922f2bdd6654d70, type: 3}
--- !u!1 &567604557184946206 stripped
GameObject:
  m_CorrespondingSourceObject: {fileID: 2447557130351960902, guid: d2548b087edb2114e922f2bdd6654d70, type: 3}
  m_PrefabInstance: {fileID: 2744927928662668120}
  m_PrefabAsset: {fileID: 0}
--- !u!195 &7798828929310447241 stripped
NavMeshAgent:
  m_CorrespondingSourceObject: {fileID: 5344911836635096529, guid: d2548b087edb2114e922f2bdd6654d70, type: 3}
  m_PrefabInstance: {fileID: 2744927928662668120}
  m_PrefabAsset: {fileID: 0}
--- !u!95 &6701283547465405459 stripped
Animator:
  m_CorrespondingSourceObject: {fileID: 8856412821741954891, guid: d2548b087edb2114e922f2bdd6654d70, type: 3}
  m_PrefabInstance: {fileID: 2744927928662668120}
  m_PrefabAsset: {fileID: 0}
