%YAML 1.1
%TAG !u! tag:unity3d.com,2011:
--- !u!136 &6133283272599325721
CapsuleCollider:
  m_ObjectHideFlags: 0
  m_CorrespondingSourceObject: {fileID: 0}
  m_PrefabInstance: {fileID: 0}
  m_PrefabAsset: {fileID: 0}
  m_GameObject: {fileID: 1487839265883754706}
  m_Material: {fileID: 0}
  m_IsTrigger: 0
  m_Enabled: 1
  m_Radius: 1.3187741
  m_Height: 4.0762963
  m_Direction: 1
  m_Center: {x: 0.0945569, y: -0.37358913, z: -8.3090085e-10}
--- !u!1001 &1748541776357570181
PrefabInstance:
  m_ObjectHideFlags: 0
  serializedVersion: 2
  m_Modification:
    m_TransformParent: {fileID: 0}
    m_Modifications:
    - target: {fileID: 204995851439770329, guid: 1f72d3661a5024f4da8bbf27bfcb4444, type: 3}
      propertyPath: m_Bounds.m_Center.x
      value: -0.14691037
      objectReference: {fileID: 0}
    - target: {fileID: 204995851439770329, guid: 1f72d3661a5024f4da8bbf27bfcb4444, type: 3}
      propertyPath: m_Bounds.m_Center.y
      value: 0.067970395
      objectReference: {fileID: 0}
    - target: {fileID: 686427435414997988, guid: 1f72d3661a5024f4da8bbf27bfcb4444, type: 3}
      propertyPath: m_Sprite
      value: 
      objectReference: {fileID: 21300000, guid: 433ab6c0a85e16a49afa51dfcc2b048b, type: 3}
    - target: {fileID: 2150196682388752023, guid: 1f72d3661a5024f4da8bbf27bfcb4444, type: 3}
      propertyPath: m_LocalScale.x
      value: 0.7052768
      objectReference: {fileID: 0}
    - target: {fileID: 2150196682388752023, guid: 1f72d3661a5024f4da8bbf27bfcb4444, type: 3}
      propertyPath: m_LocalScale.y
      value: 0.73957247
      objectReference: {fileID: 0}
    - target: {fileID: 2150196682388752023, guid: 1f72d3661a5024f4da8bbf27bfcb4444, type: 3}
      propertyPath: m_LocalScale.z
      value: 1.143
      objectReference: {fileID: 0}
    - target: {fileID: 2150196682388752023, guid: 1f72d3661a5024f4da8bbf27bfcb4444, type: 3}
      propertyPath: m_LocalPosition.x
      value: 3.06
      objectReference: {fileID: 0}
    - target: {fileID: 2150196682388752023, guid: 1f72d3661a5024f4da8bbf27bfcb4444, type: 3}
      propertyPath: m_LocalPosition.y
      value: -0.12
      objectReference: {fileID: 0}
    - target: {fileID: 2150196682388752023, guid: 1f72d3661a5024f4da8bbf27bfcb4444, type: 3}
      propertyPath: m_LocalPosition.z
      value: 0
      objectReference: {fileID: 0}
    - target: {fileID: 2757212199324643806, guid: 1f72d3661a5024f4da8bbf27bfcb4444, type: 3}
      propertyPath: m_Bounds.m_Center.x
      value: 0.7448307
      objectReference: {fileID: 0}
    - target: {fileID: 2757212199324643806, guid: 1f72d3661a5024f4da8bbf27bfcb4444, type: 3}
      propertyPath: m_Bounds.m_Center.y
      value: -0.2971822
      objectReference: {fileID: 0}
    - target: {fileID: 4157782626949879235, guid: 1f72d3661a5024f4da8bbf27bfcb4444, type: 3}
      propertyPath: m_Name
      value: enemigo3 (1) Variant (1)
      objectReference: {fileID: 0}
    - target: {fileID: 4452776413469621527, guid: 1f72d3661a5024f4da8bbf27bfcb4444, type: 3}
      propertyPath: m_Bounds.m_Center.x
      value: -0.0000018775463
      objectReference: {fileID: 0}
    - target: {fileID: 4489855758866575526, guid: 1f72d3661a5024f4da8bbf27bfcb4444, type: 3}
      propertyPath: m_BoneTransforms.Array.size
      value: 0
      objectReference: {fileID: 0}
    - target: {fileID: 4589217739823951598, guid: 1f72d3661a5024f4da8bbf27bfcb4444, type: 3}
      propertyPath: m_RootOrder
      value: 0
      objectReference: {fileID: 0}
    - target: {fileID: 4589217739823951598, guid: 1f72d3661a5024f4da8bbf27bfcb4444, type: 3}
      propertyPath: m_LocalPosition.x
      value: 4.94
      objectReference: {fileID: 0}
    - target: {fileID: 4589217739823951598, guid: 1f72d3661a5024f4da8bbf27bfcb4444, type: 3}
      propertyPath: m_LocalPosition.y
      value: 0.42024255
      objectReference: {fileID: 0}
    - target: {fileID: 4589217739823951598, guid: 1f72d3661a5024f4da8bbf27bfcb4444, type: 3}
      propertyPath: m_LocalPosition.z
      value: -32.107468
      objectReference: {fileID: 0}
    - target: {fileID: 4589217739823951598, guid: 1f72d3661a5024f4da8bbf27bfcb4444, type: 3}
      propertyPath: m_LocalRotation.w
      value: 1
      objectReference: {fileID: 0}
    - target: {fileID: 4589217739823951598, guid: 1f72d3661a5024f4da8bbf27bfcb4444, type: 3}
      propertyPath: m_LocalRotation.x
      value: 0
      objectReference: {fileID: 0}
    - target: {fileID: 4589217739823951598, guid: 1f72d3661a5024f4da8bbf27bfcb4444, type: 3}
      propertyPath: m_LocalRotation.y
      value: 0
      objectReference: {fileID: 0}
    - target: {fileID: 4589217739823951598, guid: 1f72d3661a5024f4da8bbf27bfcb4444, type: 3}
      propertyPath: m_LocalRotation.z
      value: 0
      objectReference: {fileID: 0}
    - target: {fileID: 4589217739823951598, guid: 1f72d3661a5024f4da8bbf27bfcb4444, type: 3}
      propertyPath: m_LocalEulerAnglesHint.x
      value: 0
      objectReference: {fileID: 0}
    - target: {fileID: 4589217739823951598, guid: 1f72d3661a5024f4da8bbf27bfcb4444, type: 3}
      propertyPath: m_LocalEulerAnglesHint.y
      value: 0
      objectReference: {fileID: 0}
    - target: {fileID: 4589217739823951598, guid: 1f72d3661a5024f4da8bbf27bfcb4444, type: 3}
      propertyPath: m_LocalEulerAnglesHint.z
      value: 0
      objectReference: {fileID: 0}
    - target: {fileID: 6510011054585614143, guid: 1f72d3661a5024f4da8bbf27bfcb4444, type: 3}
      propertyPath: m_Bounds.m_Center.y
      value: -0.1400001
      objectReference: {fileID: 0}
    - target: {fileID: 7498049294563183542, guid: 1f72d3661a5024f4da8bbf27bfcb4444, type: 3}
      propertyPath: m_Bounds.m_Center.y
      value: 0.08685982
      objectReference: {fileID: 0}
    - target: {fileID: 8726215723459606001, guid: 1f72d3661a5024f4da8bbf27bfcb4444, type: 3}
      propertyPath: m_Name
      value: enemigo3 (1) Variant (1) Variant
      objectReference: {fileID: 0}
    m_RemovedComponents:
    - {fileID: 266071930840915451, guid: 1f72d3661a5024f4da8bbf27bfcb4444, type: 3}
  m_SourcePrefab: {fileID: 100100000, guid: 1f72d3661a5024f4da8bbf27bfcb4444, type: 3}
--- !u!1 &1487839265883754706 stripped
GameObject:
  m_CorrespondingSourceObject: {fileID: 928247946377963095, guid: 1f72d3661a5024f4da8bbf27bfcb4444, type: 3}
  m_PrefabInstance: {fileID: 1748541776357570181}
  m_PrefabAsset: {fileID: 0}
