%YAML 1.1
%TAG !u! tag:unity3d.com,2011:
--- !u!162 &1
EditorUserSettings:
  m_ObjectHideFlags: 0
  serializedVersion: 4
  m_ConfigSettings:
    RecentlyUsedScenePath-0:
      value: 22424703114646680e0b0227036c50021212166a282d66353e2a183de3f37b6ca2f737e7f33b33303842eb39443d002df50b4905a4451f05181ae4
      flags: 0
    RecentlyUsedScenePath-1:
      value: 22424703114646680e0b0227036c50021212166a282d66353e2a183de3f37b6ba2ee38fdf5357f6d6152bf721130082beb
      flags: 0
    RecentlyUsedScenePath-2:
      value: 22424703114646680e0b0227036c50021212166a282d66353e2a183de3f37b6ca2e676fae234343d2d03a1290a371526
      flags: 0
    RecentlyUsedScenePath-3:
      value: 22424703114646680e0b0227036c50021212166a282d66353e2a183de3f37b6ca2e676e4e236383d2b07e533003f4f2afc031d12
      flags: 0
    RecentlyUsedScenePath-4:
      value: 22424703114646680e0b0227036c50021212166a282d66353e2a183de3f37b69a2ee38e0e433307c3a10ea3801300236f3060c18b81e04020517
      flags: 0
    RecentlyUsedScenePath-5:
      value: 22424703114646680e0b0227036c50021212166a282d66353e2a183de3f37b6ca2e676c4e2342a722c0ce6281d
      flags: 0
    RecentlyUsedScenePath-6:
      value: 22424703114646680e0b0227036c4f0203121a2b0d262f3d2c2a143cece52776f7e93ffdfe
      flags: 0
    RecentlyUsedScenePath-7:
      value: 22424703114646680e0b0227036c50021212166a282d66353e2a183de3f37b6ba2b66eb9b77a35293c05e0721130082beb
      flags: 0
    RecentlyUsedScenePath-8:
      value: 22424703114646680e0b0227036c50021212166a282d66353e2a183de3f37b6aa2d737e7f33b33303842eb3944370f36f103064bf7050306100afc4004f1190708
      flags: 0
    RecentlyUsedScenePath-9:
      value: 22424703114646680e0b0227036c50021212166a282d66353e2a183de3f37b0be7e93de8f33b7129370bfb25
      flags: 0
    vcSharedLogLevel:
      value: 0d5e400f0650
      flags: 0
  m_VCAutomaticAdd: 1
  m_VCDebugCom: 0
  m_VCDebugCmd: 0
  m_VCDebugOut: 0
  m_SemanticMergeMode: 2
  m_VCShowFailedCheckout: 1
  m_VCOverwriteFailedCheckoutAssets: 1
  m_VCProjectOverlayIcons: 1
  m_VCHierarchyOverlayIcons: 1
  m_VCOtherOverlayIcons: 1
  m_VCAllowAsyncUpdate: 1
